{
  "repo": {
    "timestamp": 1534532485239,
    "version": 18,
    "name": "GreenApple",
    "icon": "default-repo-icon.png",
    "address": "https://gitlab.com/alesimula/greenapple-repo/tree/master/fdroid/repo",
    "description": "Repo containing apps and ports by GreenApple (Alex Sim)",
    "mirrors": [
      "https://gitlab.com/alesimula/greenapple-repo/tree/master/fdroid/repo/repo"
    ]
  },
  "requests": {
    "install": [],
    "uninstall": []
  },
  "apps": [
    {
      "authorName": "Alex Sim",
      "categories": [
        "Navigation",
        "Graphics",
        "System",
        "Theming"
      ],
      "suggestedVersionCode": "8010007",
      "license": "Unknown",
      "name": "Trebuchet",
      "added": 1534519497701,
      "icon": "com.lineageport.trebuchet.8010007.png",
      "packageName": "com.lineageport.trebuchet",
      "lastUpdated": 1534519499628,
      "localized": {
        "en-US": {
          "description": "<p>Trebuchet launcher is an AOSP (Android Open Source Project) based launcher developed by LineageOS team.</p>\r\n<p>This is a port of the popular LineageOS 15 ROM's Trebuchet launcher to enjoy on any device; working with any android version equal or greater than Android 5.x.</p>\r\n<p>Now with icon pack support and some extra features!</p>\r\n<p>If you want to report a bug or have any specific question please check the XDA Thread https://forum.xda-developers.com/android/apps-games/app-lineageos-15-trebuchet-laucher-rom-t3667436</p>\r\n<p>XDA Labs (Appstore) link for Trebuchet: https://labs.xda-developers.com/store/app/com.lineageport.trebuchet</p>",
          "phoneScreenshots": [
            "Screenshot_20180121-014100.png",
            "Screenshot_20180121-014130.png",
            "Screenshot_20180121-014205.png",
            "Screenshot_20180121-014223.png",
            "Screenshot_20180121-014233.png",
            "Screenshot_20180121-014259.png",
            "Screenshot_Trebuchet_20180614-234409.png"
          ],
          "featureGraphic": "3cab47c4-3068-49b6-b855-4dd0dd6e3034.png",
          "summary": "Trebuchet LAOS 15 Launcher"
        },
        "it": {
          "description": "<p>Trebuchet &egrave; un launcher basato su launcher3 di AOSP (Android Open Source Project) e sviluppato dal team di LineageOS.</p>\r\n<p>Questo port di Trebuchet permette di poterlo utilizzare da qualsiasi dispositivo con versione di Android uguale o superiore a 5.x.</p>\r\n<p>Ora con il supporto per i pacchetti di icone (icone personalizzate) e diverse opzioni aggiuntive!</p>\r\n<p>Per segnalare un bug o rivolgere una domanda specifica, consulta il Thread XDA al link https://forum.xda-developers.com/android/apps-games/app-lineageos-15-trebuchet-laucher-rom-t3667436</p>\r\n<p>Link per XDA Labs (Appstore): https://labs.xda-developers.com/store/app/com.lineageport.trebuchet</p>",
          "summary": "Trebuchet LAOS 15 Launcher"
        }
      }
    }
  ],
  "packages": {
    "com.lineageport.trebuchet": [
      {
        "added": 1534519499628,
        "apkName": "Trebuchet_8.1.0.7_UNIVERSAL.apk",
        "hash": "2d54e77f65688d88f1e50fd11d832b58de8cd293feb4b2382aa27ca339460b94",
        "hashType": "sha256",
        "minSdkVersion": "21",
        "packageName": "com.lineageport.trebuchet",
        "sig": "be639c580b1f04994d6d2da4be6ff777",
        "size": 3290304,
        "targetSdkVersion": "27",
        "uses-permission": [
          [
            "com.android.launcher.permission.READ_SETTINGS",
            null
          ],
          [
            "com.android.launcher.permission.WRITE_SETTINGS",
            null
          ],
          [
            "com.lineageport.trebuchet.permission.READ_SETTINGS",
            null
          ],
          [
            "com.lineageport.trebuchet.permission.WRITE_SETTINGS",
            null
          ],
          [
            "android.permission.EXPAND_STATUS_BAR",
            null
          ],
          [
            "android.permission.CALL_PHONE",
            null
          ],
          [
            "android.permission.SET_WALLPAPER",
            null
          ],
          [
            "android.permission.SET_WALLPAPER_HINTS",
            null
          ],
          [
            "android.permission.BIND_APPWIDGET",
            null
          ],
          [
            "android.permission.READ_EXTERNAL_STORAGE",
            null
          ],
          [
            "android.permission.RECEIVE_BOOT_COMPLETED",
            null
          ]
        ],
        "versionCode": 8010007,
        "versionName": "8.1.0.7"
      }
    ]
  }
}
